1 10 20
100 200 125
201 210 89
900 1000 174
809 32533 308
20065 17839 274
17852 11316 279
26800 5652 308
24194 16716 282
20352 28320 308
12726 583 268
1389 19172 279
14948 641 276
19356 24311 282
15808 31489 308
3520 18080 279
14516 14528 165
13843 31190 308
15828 1584 276
20854 7508 279
25016 150 282
1372 18661 279
16421 15357 253
18718 17131 279
14671 29993 308
29387 1870 308
31507 7379 308
24007 13808 282
4597 30077 308
16342 22811 279
27454 11328 308
4140 19701 279
22123 27031 308
8229 18785 279
27603 31438 285
31071 19593 308
14950 4735 276
22965 22785 207
12902 12810 170
2684 22867 279
25511 27179 308
8015 5143 262
28604 5775 308
32670 24611 308
11126 11335 237
18725 11525 279
11060 15897 276
19468 14302 279
15042 3211 276
3683 32719 308
20291 18243 274
5488 892 238
23735 21257 282
14 12129 268
29401 5925 308
26647 10616 308
2960 31041 308
1531 1855 180
14967 19262 279
24391 4610 282
12262 6633 268
1306 29105 308
2618 27861 308
30023 2841 308
11699 11520 219
15125 26879 308
10774 3509 262
20099 1364 279
26721 9714 308
9377 22841 279
6327 5592 262
6961 18794 279
21865 18314 274
10410 11767 268
19585 2436 279
6201 10675 260
5101 9163 262
29300 5821 308
25356 5088 282
24725 16366 282
2804 765 209
17306 8364 276
27867 5524 308
6325 7075 257
30070 9185 308
30725 9293 308
15943 12661 276
29192 23127 308
93 29732 308
18102 26774 308
14497 12871 276
21208 21034 225
21391 20454 256
33 29797 308
4094 32590 308
29571 8834 308
4963 13726 276
11255 16999 276
22841 8044 279
31054 24435 308
22768 2513 279
23252 10762 279
1221 5453 238
25492 3904 282
11069 9818 268
25379 28615 308
1643 25889 282
23014 3465 279
2460 18732 279
21412 10346 279
15008 25688 282
15849 32438 308
28092 14725 308
14828 14613 271
31512 28567 285
6841 22779 279
18421 4938 279
27261 17655 308
4090 20145 279
18006 19047 261
3689 7248 262
10777 13995 276
29762 6255 308
6729 11517 268
5292 9472 262
6393 32170 308
14777 13679 271
31195 168 308
9320 8256 260
11861 26234 282
18776 19426 261
27338 28888 259
21843 18586 274
4045 16685 276
2919 12776 268
23320 29192 308
1146 28732 308
30605 24672 308
19837 17126 279
7553 24045 282
29053 20974 308
28577 6942 308
26368 10867 282
24620 22337 282
27071 31466 285
1029 30425 308
7579 13685 276
12125 29425 308
2084 29491 308
12972 16480 276
16692 7118 276
32489 3739 308
22263 27448 308
3668 9527 262
