92357 174353 383
866709 26703 525
806727 650067 504
340373 655164 509
2510 952438 525
214237 273876 443
781248 48489 509
100386 364109 443
200315 144943 383
377315 162555 443
342162 402195 441
193739 350456 443
119387 30889 354
319487 268654 407
938997 834552 525
101329 152182 375
956304 848640 507
536058 871160 525
156808 466778 449
352150 549173 470
688505 835666 504
636401 307957 509
216554 926087 525
885816 23777 525
529389 428397 470
116353 658193 509
731732 780409 468
159031 989883 525
353273 328585 441
576744 613511 434
945416 631064 525
494136 629109 509
187323 800283 509
765574 248430 509
752834 874581 525
312434 994823 525
264642 170782 443
202364 939273 525
633956 28096 509
180902 565616 470
49855 295810 443
736826 607188 509
979845 558649 525
969046 209197 525
362634 930402 525
57395 376175 443
555977 838032 525
404157 98156 443
958163 317319 525
661302 396855 509
101496 376425 443
762286 716023 424
550420 575349 421
502427 447851 444
913552 372303 525
157048 480867 449
802908 299359 509
74973 332320 443
829920 224801 509
873769 74537 525
41738 115827 354
667368 513498 509
225067 495148 449
745540 426585 509
359917 684907 509
129390 36802 354
47971 782436 509
689563 445674 509
324987 177848 443
764635 887315 525
670545 790512 504
37382 49240 314
409333 351343 436
650109 493918 509
196795 199619 329
69234 707760 509
854321 778056 525
825302 807691 450
136233 660593 509
40066 433587 449
748721 888568 525
849591 507524 525
171562 453239 449
174059 660565 509
503950 892322 525
854217 406854 525
96839 445010 449
815303 718859 468
273895 575323 470
371905 104748 443
197850 300452 443
324386 978870 525
750666 994981 525
643709 291414 509
786422 193841 509
905008 919290 476
542343 83946 470
550943 777975 509
338253 913379 525
774439 273366 509
674678 139980 509
231353 505736 449
758772 960483 525
645549 536705 509
310424 134997 443
442997 727476 509
646153 97616 509
337847 416653 449
4106 587553 470
409059 451507 449
250473 103689 443
572700 313118 470
126483 497460 449
333469 46725 443
526092 136930 470
296815 222984 443
513107 853208 525
283276 324549 389
628864 926703 525
387344 132224 443
919260 945251 507
712787 589984 509
833980 703055 504
66855 483943 449
730867 690444 504
651798 704721 504
401278 196408 443
336620 546957 470
255982 18822 443
589461 435851 470
5437 333877 443
142625 583394 470
91723 406686 443
359967 846050 525
454087 878248 525
59401 279478 443
479705 241952 449
112270 788436 509
571283 215267 470
802900 260207 509
54319 373230 443
495325 445599 444
429937 233174 449
294558 301651 371
409204 18224 443
276899 832079 509
830492 250544 509
11532 696264 509
553253 69472 470
806805 527034 509
28566 47975 324
602752 226587 470
230804 814511 509
750628 298018 509
822070 228011 509
603579 655826 509
404832 640174 509
462223 42364 449
503028 294053 449
332302 548360 470
411286 349452 449
692839 993315 525
933044 908326 476
255562 124493 443
58324 677493 509
860963 910712 476
490113 979002 525
236489 89700 443
232087 339249 407
108837 582206 470
519693 992269 525
505742 797796 509
100561 476582 449
939273 252019 525
502952 23098 449
604100 555078 434
798469 776243 468
473288 614941 470
966930 581159 525
112753 563504 470
281064 572095 470
227143 556847 470
429848 37425 449
981674 814861 525
337703 539588 470
174053 494180 449
214893 482635 449
65935 758055 509
490648 867233 525
492222 155801 449
946196 872826 507
672334 65881 509
173857 672592 509
475611 19454 449
478243 148883 449
969136 700869 525
620148 905722 525
496581 64799 449
194189 258785 443
529728 262481 470
355777 123840 443
921915 143018 525
802631 973140 525
979097 519647 525
593234 629239 509
680729 283597 509
963490 451040 525
105792 698071 509
86075 805924 509
807993 14242 509
332573 39420 443
18799 949888 525
345862 188701 443
641347 935445 525
267302 983021 525
244655 486529 449
359771 864336 525
299610 297978 371
129578 517852 470
83355 847630 525
900319 879276 445
785599 278084 509
28723 10178 308
984935 32516 525
34773 998343 525
571863 175419 470
104441 913993 525
591732 290525 470
106341 780033 509
699494 913018 525
599085 578054 434
591460 100067 470
330291 197008 443
983392 561085 525
788260 213098 509
597893 903467 525
29309 350468 443
579724 543205 452
335568 380094 441
175689 349540 443
813826 92697 509
72596 530993 470
779316 739426 468
52788 139979 354
678797 52807 509
162483 191574 365
598963 59197 470
691163 123103 509
183759 886215 525
219114 78895 386
138381 612067 470
46208 68866 340
787783 548173 509
324913 282712 389
13877 746562 509
884118 553395 525
102890 715509 509
234898 502888 449
298285 981108 525
90377 360659 443
54951 216594 386
967478 789004 525
540896 607807 452
494231 945254 525
775309 134470 509
861212 761191 525
597994 850742 525
20887 242264 443
287176 622357 470
671514 695185 442
754674 146548 509
498985 93117 449
36137 925605 525
811294 647104 504
788727 656180 504
703434 355896 509
544510 818179 509
564080 88382 470
345946 2900 443
744190 983729 525
611495 664932 509
217167 923471 525
297193 422657 449
535915 177399 470
892648 708958 525
523266 205925 470
254022 758809 509
275657 846335 525
559643 111237 470
631714 271451 509
122512 229896 386
621639 643443 509
202544 861102 525
347248 29422 443
70303 190266 383
401751 784434 509
409393 981861 525
492662 791915 509
642524 559656 509
515711 405955 470
923933 848992 476
49298 210848 383
258686 686527 509
244790 53100 443
754804 370886 509
821624 873769 525
132139 120011 344
188981 741403 509
289024 700701 509
710981 43280 509
120893 549886 470
37188 321543 443
137839 111589 349
920487 813437 525
920945 790199 525
326444 267235 407
574923 277831 470
462325 611976 470
242677 498262 449
493149 798757 509
672288 287021 509
979331 32642 525
990745 666147 525
573905 881954 525
669554 182662 509
188717 353113 443
381579 876520 525
592539 845213 525
274770 881163 525
874655 223797 525
903433 30401 525
434187 173614 449
961459 901938 507
821541 491015 509
878351 417627 525
799364 295481 509
251239 203948 443
427744 211027 449
195003 597406 470
182761 129332 383
875565 326278 525
401827 720566 509
161242 83947 383
681443 207843 509
654 669985 509
11502 575148 470
969481 655172 525
24145 833616 509
149267 915209 525
86817 958013 525
758790 59882 509
556947 405427 470
666355 714984 504
848138 14819 525
673724 335225 509
61929 746189 509
229001 706514 509
325801 60127 443
921435 75206 525
485307 314188 449
389066 340824 441
954845 249277 525
853347 376233 525
851727 841062 419
581966 689403 509
495747 544465 470
376670 851757 525
800632 630320 504
294555 390991 441
50881 571081 470
324006 629912 509
465078 292182 449
816755 670035 504
257488 562561 470
987193 887402 507
701386 681862 442
246623 541394 470
143604 235883 443
203735 410231 449
266241 452526 449
903729 398491 525
760289 730933 424
316070 31440 443
467696 725270 509
975040 333628 525
886723 130394 525
168727 866058 525
523731 885360 525
202612 96907 383
357740 293571 441
824729 734651 468
835585 50841 509
958765 259806 525
816012 795853 468
607449 54324 470
824253 936341 525
648704 420028 509
295622 392022 441
244331 524293 470
796448 930061 525
447006 831665 509
26765 360898 443
427199 147547 449
201696 471537 449
867099 507457 525
955472 362296 525
561352 861635 525
360279 498920 449
215828 298094 443
609558 375523 470
122828 152214 375
584555 983226 525
498733 313417 449
840724 114772 525
543152 656370 509
712509 836468 468
34804 815642 509
582853 289771 470
650209 944243 525
415983 722928 509
728270 736382 424
974814 64274 525
688108 133644 509
950008 565189 525
150283 775785 509
154534 911838 525
809749 734179 468
363995 961540 525
48040 375960 443
980658 191835 525
737040 377778 509
887502 381989 525
704060 731906 504
218609 294733 443
895555 158791 525
629306 771617 504
4345 786962 509
466625 744051 509
475849 169766 449
371705 874168 525
325083 919071 525
322463 677323 509
225875 3143 386
59007 942486 525
710611 789127 468
744558 729878 424
728977 828409 468
309499 274864 389
195854 79029 383
771366 310514 509
675345 509597 509
841542 191490 525
167530 747901 509
278813 141456 443
189305 579492 470
831524 857860 525
119163 932931 525
628652 227348 509
593429 924203 525
586743 917815 525
210477 695260 509
349523 43529 443
424747 854642 525
857712 947333 507
102567 89934 341
811935 162126 509
226565 169322 386
797657 124160 509
525837 96369 470
338215 346279 441
187739 959102 525
343058 289095 384
318835 724705 509
615335 872939 525
369646 737034 509
805266 685677 504
866624 975610 507
810772 223954 509
865653 546967 525
330114 917620 525
430089 89685 449
594800 88718 470
257703 696346 509
390559 699645 509
681181 976377 525
183986 59966 383
412800 597880 470
599475 578767 434
665562 538066 509
345193 920254 525
882822 373353 525
91058 826327 509
596679 363367 470
360059 109626 443
818580 449320 509
622260 662145 509
683329 439717 509
68293 970568 525
115854 498578 449
674195 393608 509
28523 816416 509
714747 656335 504
173831 482095 449
837607 6509 509
550747 350090 470
914340 602058 525
126920 745990 509
808111 723339 468
75256 785435 509
487598 383212 449
908694 954164 507
696603 461033 509
282913 857745 525
144720 451177 449
274488 275183 314
600700 63991 470
377106 894803 525
712870 317256 509
351912 431092 449
123083 118038 336
7526 652406 509
523581 954178 525
819793 654531 504
23043 764491 509
342829 316541 384
432522 799491 509
53239 612406 470
621081 342100 470
799157 541617 509
46020 63960 340
962054 851329 507
122427 726071 509
140869 665528 509
170408 66963 383
445437 121947 449
435758 645693 509
221554 684761 509
121387 615795 470
721236 125464 509
565288 884941 525
660786 649918 429
35760 823258 509
812678 36972 509
323792 467117 449
368966 241410 441
964197 370649 525
254291 756765 509
828415 908360 525
292265 680564 509
505508 504029 364
530843 926589 525
114908 239410 443
140233 882896 525
446718 374746 449
346514 639347 509
203464 722940 509
352976 465186 449
831565 992229 525
280932 271710 389
478664 2429 449
676969 122450 509
131627 445730 449
859419 725296 525
982375 796026 525
486346 181307 449
197306 744398 509
156449 610470 470
652106 319768 509
946223 287876 525
491344 665587 509
221997 155624 386
957911 800289 525
418585 880103 525
248393 533033 470
198076 597971 470
364644 606012 470
483937 85513 449
793682 686083 504
260919 78088 443
109517 277712 443
729675 106519 509
689477 432564 509
33821 472364 449
911666 667499 525
493482 611534 470
759137 78790 509
64124 266691 443
448994 77359 449
231458 973108 525
480036 644190 509
521097 544238 408
174907 103671 383
381120 389305 436
352772 259513 441
539319 959198 525
480099 842056 525
362307 708133 509
393448 565533 470
780734 266522 509
229906 109475 386
101657 354255 443
342483 763298 509
866106 165306 525
835473 163458 509
748129 43353 509
719207 369340 509
366208 871988 525
663633 985541 525
64028 390726 443
697363 603926 509
804154 67081 509
475738 746340 509
336481 913009 525
792630 642327 504
228343 320741 443
17699 884911 525
667233 818463 504
892878 650848 525
719685 646291 504
385919 608319 470
858398 875145 432
236886 425050 449
534221 436404 470
304702 791626 509
276288 915489 525
554560 476552 470
967060 927472 507
467675 979963 525
150098 829606 509
285326 435455 449
208203 774873 509
609680 654423 509
230297 928564 525
766241 605771 509
446235 758266 509
760073 181736 509
319067 150646 443
380974 464334 449
377947 970913 525
486050 576811 470
137062 52238 354
181064 724623 509
192955 153534 383
938881 584591 525
416339 758420 509
703800 865537 525
551752 532016 452
312665 953121 525
645129 462842 509
580040 602748 434
18815 89717 351
252493 175237 443
160987 235232 443
89181 606961 470
177588 587748 470
231058 778208 509
610734 982034 525
992654 781918 525
522714 448476 470
724124 23132 509
239988 116372 443
167464 861915 525
257311 172990 443
827297 11880 509
676859 659012 442
97870 562270 470
585794 8886 470
762237 486799 509
748577 885051 525
484108 261459 449
197308 665520 509
495481 248856 449
9448 689694 509
412889 833783 509
828118 569722 509
569844 261294 470
870641 688232 525
710734 363316 509
468087 801169 509
980276 465794 525
655213 277611 509
396270 900751 525
660453 337037 509
2053 81249 351
563380 3245 470
422732 861161 525
849512 557535 525
685412 706779 504
408712 163197 443
561972 21134 470
635608 448586 509
252385 300452 407
409487 263566 441
314220 650418 509
709955 552042 509
56269 2653 340
537086 637862 509
167690 885904 525
685263 205055 509
32843 201204 383
400263 21155 443
107076 178677 383
849054 968388 507
594194 759320 509
306657 569809 470
433057 889130 525
10334 63241 340
351605 942604 525
755090 963543 525
781970 102571 509
858348 702165 525
273037 483458 449
367979 654557 509
68820 1212 340
340464 421462 449
301371 445522 449
391232 696459 509
814930 412744 509
221988 926411 525
654642 311330 509
961092 483366 525
887665 991790 507
66793 108536 354
888041 208656 525
685236 260982 509
501322 822363 509
294119 204518 443
615756 726523 509
572449 278260 470
745260 225965 509
22129 833426 509
507473 631612 509
602359 225942 470
582591 191566 470
654815 966283 525
19466 716947 509
713095 278456 509
185381 285525 443
876013 537791 525
849893 748986 525
30272 544188 470
772207 824672 468
475376 201269 449
18436 3904 279
728867 449538 509
776270 278958 509
879882 218627 525
895933 87697 525
201084 643314 509
123747 217962 386
343001 857514 525
520915 381388 470
123097 461613 449
317651 66705 443
71681 434164 449
705336 628056 504
441884 961015 525
999796 911609 507
305810 145732 443
474812 162792 449
579674 226946 470
527734 648455 509
593319 303061 470
744084 150923 509
825327 683756 504
215976 69311 383
869719 575391 525
458112 226588 449
457197 594040 470
623119 223254 470
991136 88709 525
196060 577344 470
532541 989724 525
61873 186065 383
34965 629629 509
62094 458714 449
409068 32444 443
167745 32689 383
275092 963717 525
821457 419941 509
452056 439395 387
220634 683091 509
39739 270650 443
576673 288939 470
649775 758298 504
486638 237168 449
820930 435857 509
610391 663154 509
37841 579450 470
12640 793216 509
805897 492385 509
525002 451250 470
9249 79673 351
919174 747452 525
110023 793738 509
772048 567087 509
439206 272136 449
916745 198625 525
859347 996244 507
716935 737940 424
630583 46453 509
147891 7190 375
987458 667553 525
46280 481170 449
870044 980272 507
238083 213583 443
767629 398796 509
872089 16520 525
311644 426067 449
308543 46081 443
980092 722146 525
699455 408361 509
508823 581432 470
731264 814651 468
504174 995932 525
613068 784205 509
296288 708521 509
747752 834062 468
45439 351702 443
472976 78977 449
315201 181365 443
24120 10082 282
479633 534349 470
995525 243025 525
646274 533868 509
857255 890961 445
66941 936213 525
605518 812346 509
752656 830314 468
596902 859451 525
152207 500424 449
325827 607678 470
133932 26948 354
753005 232427 509
198441 58440 383
962895 395848 525
305785 352773 441
799156 964589 525
605035 558434 434
914933 76163 525
778945 742989 468
555576 746121 509
336890 696640 509
231741 70626 443
423931 673553 509
881038 935674 476
865760 820477 525
267005 573103 470
212678 89932 383
258690 236151 368
72698 737563 509
628382 960819 525
210080 8370 383
712980 213464 509
962049 918477 507
541386 45315 470
313250 501859 449
829670 420831 509
423934 724411 509
964630 633405 525
532492 210301 470
440588 64956 449
67688 815958 509
428711 375141 449
326383 247765 407
888099 263898 525
215366 769829 509
503729 394173 449
587369 661796 509
95916 974276 525
50375 716711 509
79172 923060 525
481253 563082 470
869402 477445 525
339976 564264 470
892084 972317 507
336442 878927 525
53831 469637 449
854822 451869 525
762923 705596 424
617593 435975 470
775846 186222 509
530776 430744 470
343642 720483 509
206139 159561 370
137041 809681 509
402632 618754 470
11794 197231 383
348175 109459 443
166780 581159 470
410190 475961 444
722345 923167 525
275552 206119 443
953888 797248 525
241509 978582 525
230544 835287 509
570941 428368 470
566966 135443 470
798258 154398 509
542953 466329 470
657995 378462 509
993760 399885 525
162201 139135 383
251071 545556 470
375176 230791 441
586065 307051 470
473098 159945 449
349087 660630 509
713163 252085 509
72359 776592 509
315464 252038 407
289367 104682 443
984631 72313 525
932083 755275 525
717949 953962 525
381966 959462 525
655976 946688 525
629432 114460 509
199603 318045 443
659977 955388 525
460152 482902 444
108926 242110 443
921002 458776 525
180272 943204 525
148658 245207 443
150041 956598 525
466116 578577 470
117786 995457 525
489339 663227 509
555933 781230 509
755132 952683 525
257288 119462 443
754736 225649 509
470684 494190 426
38973 911391 525
358495 5732 443
96333 946134 525
92745 149067 375
723208 510089 509
537012 696878 509
947825 872234 507
733964 829665 468
112565 110114 323
693536 56913 509
564207 544343 452
519102 770734 509
231393 951639 525
605920 683149 509
62801 923150 525
240172 338775 407
187789 459098 449
508340 374148 449
809081 402504 509
176068 904901 525
797541 651608 504
114604 140628 349
496787 637023 509
372812 374266 348
64148 29135 340
487808 136655 449
699119 595914 509
537200 109644 470
234553 518068 470
230130 469358 449
137347 825963 509
976498 300181 525
29462 969430 525
727955 485563 509
204473 656940 509
484180 129427 449
954338 261750 525
829207 474118 509
797287 867362 525
536661 368812 470
251873 907507 525
108588 465616 449
757256 385120 509
34292 148972 375
570352 442856 470
552345 498131 470
438603 785447 509
190859 22371 383
662269 833828 504
399797 810189 509
650114 516461 509
872811 522840 525
52269 47294 314
191707 921390 525
53457 440166 449
210302 485525 449
427827 76423 449
440200 936086 525
96258 959262 525
186173 618123 470
345045 298824 384
761266 490454 509
288847 596181 470
981284 119978 525
37118 195712 383
692871 490995 509
