1 2001 182
1 1999 182
999000 1000000 396
1001 2999 217
1 1000000 525
7423 16234 276
16234 7423 276
19245 906914 525
628759 638258 416
841397 954445 507
537528 689552 509
437162 227606 449
831097 36288 509
803614 49902 509
670232 944344 525
906559 738555 525
117565 409074 443
960773 862144 507
564231 4117 470
666051 526029 509
892269 445970 525
475321 829512 509
704307 202488 509
163046 895365 525
295272 990569 525
973617 649336 525
690263 609535 509
221569 66018 386
106649 352056 443
951142 616136 525
49979 545643 470
22437 667853 509
681416 412955 509
454717 802443 509
709510 331631 509
108825 868249 525
147745 556955 470
57612 35898 340
559955 923321 525
470243 88458 449
665992 713771 504
393547 527186 470
210138 699589 509
479007 237109 449
368716 455106 449
116293 650197 509
915985 161099 525
164033 907955 525
404896 426925 449
363898 754340 509
268812 126523 443
163619 4536 383
353962 995163 525
295149 701665 509
563352 589519 434
549389 170111 470
655674 231914 509
758310 89000 509
539311 667041 509
296524 364740 441
84677 192328 383
574891 175408 470
793590 38943 509
611222 456200 470
718709 925057 525
86931 631579 509
42655 33429 324
412815 564530 470
119327 867850 525
352731 766662 509
333082 519520 470
908415 132883 525
209880 372915 443
157659 801053 509
621497 938096 525
194939 398980 443
90425 536617 470
187338 200965 360
54872 832381 509
910191 882673 476
392198 469160 449
503553 469078 426
871050 320138 525
500028 656794 509
174 700160 509
552699 628317 509
572041 82134 470
182854 914814 525
902472 488442 525
417951 871644 525
927854 832568 525
770245 315881 509
558635 159823 470
402571 821869 509
178924 305903 443
92329 110657 354
271994 341749 389
614067 80041 470
935278 663750 525
902610 589887 525
556750 73201 470
990159 827719 525
923091 774231 525
998531 949411 458
229786 491406 449
412249 207333 449
587964 870701 525
540688 519823 408
902302 179809 525
4049 746645 509
324519 596874 470
394202 754349 509
284590 175167 443
88049 539748 470
120479 356199 443
16279 573861 470
414412 353672 449
591010 268123 470
681604 773403 504
666638 77189 509
508682 692553 509
684684 538121 509
916013 218275 525
428917 870624 525
58509 747191 509
8483 2919 262
666064 889815 525
916862 90120 525
93495 59423 351
221000 890572 525
107499 897161 525
286346 798037 509
131150 353172 443
238682 752452 509
147181 790080 509
399641 185279 443
601444 202199 470
